<?xml version="1.0" encoding="UTF-8" standalone="no"?>
<svg
   xmlns:dc="http://purl.org/dc/elements/1.1/"
   xmlns:cc="http://creativecommons.org/ns#"
   xmlns:rdf="http://www.w3.org/1999/02/22-rdf-syntax-ns#"
   xmlns:svg="http://www.w3.org/2000/svg"
   xmlns="http://www.w3.org/2000/svg"
   id="svg8"
   version="1.1"
   viewBox="0 0 4.2333329 4.2333331"
   height="15.999999"
   width="15.999999">
  <defs
     id="defs2" />
  <metadata
     id="metadata5">
    <rdf:RDF>
      <cc:Work
         rdf:about="">
        <dc:format>image/svg+xml</dc:format>
        <dc:type
           rdf:resource="http://purl.org/dc/dcmitype/StillImage" />
        <dc:title></dc:title>
      </cc:Work>
    </rdf:RDF>
  </metadata>
  <g
     transform="translate(-38.391106,-336.09973)"
     id="layer1">
    <path
       id="path83926"
       d="m 40.982214,339.00579 -0.0041,0.25767 -1.791438,0.008 -0.0082,-2.12273 h 1.349713 l -0.0041,0.37629 0.437634,0.008 -0.0041,0.27812 h 0.241312 v -0.42127 l -0.531705,-0.46218 -1.570575,0.008 -0.151332,0.1227 -0.0041,2.26179 0.159512,0.18405 1.885508,-0.004 0.212683,-0.15133 -2e-6,-0.35175 z"
       style="fill:#0b0000;fill-opacity:1;stroke:none;stroke-width:0.06213666px;stroke-linecap:butt;stroke-linejoin:miter;stroke-opacity:1" />
    <path
       id="path83928"
       d="m 39.399367,337.51701 -0.0041,0.20451 h 0.924349 v -0.2086 z"
       style="fill:#0b0000;fill-opacity:1;stroke:none;stroke-width:0.06213666px;stroke-linecap:butt;stroke-linejoin:miter;stroke-opacity:1" />
    <path
       id="path83928-3"
       d="m 39.400198,338.10496 -0.0049,0.2045 h 1.112491 v -0.20859 z"
       style="fill:#0b0000;fill-opacity:1;stroke:none;stroke-width:0.06816762px;stroke-linecap:butt;stroke-linejoin:miter;stroke-opacity:1" />
    <path
       id="path83928-5"
       d="m 39.401321,338.6929 -0.006,0.2045 h 1.366074 v -0.20859 z"
       style="fill:#0b0000;fill-opacity:1;stroke:none;stroke-width:0.07553824px;stroke-linecap:butt;stroke-linejoin:miter;stroke-opacity:1" />
    <path
       id="path83953"
       d="m 41.648891,337.75628 -0.809829,0.73007 -0.01636,0.15951 0.139061,0.0245 0.875269,-0.73212 -0.159512,-0.15133 -0.0818,-0.227 0.155422,0.0123 0.323113,0.30471 -0.01227,0.12679 -0.924349,0.77711 -0.490805,0.0777 0.01636,-0.43764 0.93253,-0.86094 0.159511,0.0593 -0.04294,0.20655 z"
       style="fill:#0b0000;fill-opacity:1;stroke:none;stroke-width:0.06213666px;stroke-linecap:butt;stroke-linejoin:miter;stroke-opacity:1" />
  </g>
</svg>
