<?xml version="1.0" encoding="UTF-8" standalone="no"?>
<svg
   xmlns:dc="http://purl.org/dc/elements/1.1/"
   xmlns:cc="http://creativecommons.org/ns#"
   xmlns:rdf="http://www.w3.org/1999/02/22-rdf-syntax-ns#"
   xmlns:svg="http://www.w3.org/2000/svg"
   xmlns="http://www.w3.org/2000/svg"
   id="svg8"
   version="1.1"
   viewBox="0 0 4.2333329 4.2333331"
   height="15.999999"
   width="15.999999">
  <defs
     id="defs2" />
  <metadata
     id="metadata5">
    <rdf:RDF>
      <cc:Work
         rdf:about="">
        <dc:format>image/svg+xml</dc:format>
        <dc:type
           rdf:resource="http://purl.org/dc/dcmitype/StillImage" />
        <dc:title></dc:title>
      </cc:Work>
    </rdf:RDF>
  </metadata>
  <g
     transform="translate(-14.991517,-332.89935)"
     id="layer1">
    <path
       id="path83844"
       d="m 15.77837,335.56813 2.64732,3.8e-4 c 0,0 0.164858,0.0341 0.164156,0.21208 -6.95e-4,0.17823 -0.166667,0.20527 -0.166667,0.20527 l -2.64732,-3.8e-4 c 0,0 -0.150366,-0.0582 -0.149334,-0.21271 10e-4,-0.15448 0.151846,-0.20476 0.151846,-0.20476 z"
       style="fill:#150000;fill-opacity:1;stroke:none;stroke-width:0.41332591px;stroke-linecap:butt;stroke-linejoin:miter;stroke-opacity:1" />
    <path
       id="path83844-7"
       d="m 15.77837,334.80722 2.64732,3.7e-4 c 0,0 0.164858,0.0341 0.164156,0.21209 -6.99e-4,0.17823 -0.166667,0.20527 -0.166667,0.20527 l -2.64732,-3.8e-4 c 0,0 -0.150366,-0.0582 -0.149334,-0.21271 10e-4,-0.15448 0.151846,-0.20476 0.151846,-0.20476 z"
       style="fill:#150000;fill-opacity:1;stroke:none;stroke-width:0.41332591px;stroke-linecap:butt;stroke-linejoin:miter;stroke-opacity:1" />
    <path
       id="path83844-5"
       d="m 15.77837,334.04631 2.64732,3.7e-4 c 0,0 0.164858,0.0341 0.164156,0.21209 -6.99e-4,0.17822 -0.166667,0.20526 -0.166667,0.20526 l -2.64732,-3.7e-4 c 0,0 -0.150366,-0.0582 -0.149334,-0.21271 10e-4,-0.15448 0.151846,-0.20476 0.151846,-0.20476 z"
       style="fill:#150000;fill-opacity:1;stroke:none;stroke-width:0.41332591px;stroke-linecap:butt;stroke-linejoin:miter;stroke-opacity:1" />
  </g>
</svg>
